*** Life<FredkinCell> 12x12 ***

Generation = 0, Population = 27.
--0----000-0
--0---------
-----0------
------0-----
0-----0---0-
------------
---0---00--0
0-----------
---000-0--0-
0-0-----0---
----------0-
0---------0-

Generation = 20, Population = 52.
5-----+1-545
5-----3-5-9-
---72-45-333
--------3---
-1--79-64-65
--------5-6-
624----54-8-
8-2-6-3---5-
7--5-572---9
--4-6-6-----
1--76-------
--6-----6---

*** Life<FredkinCell> 11x15 ***

Generation = 0, Population = 42.
-------00--0---
-000-0-0---0---
---0-0-0---00--
--000-----00---
--------0------
--------------0
0--0--0-----0-0
0-0---0-------0
0---00---------
0-0---0---00-0-
0-------0-0----

Generation = 20, Population = 77.
723+-+--+7-2--7
879536---7-534-
7-233--32--73--
5-9---8-5------
4440573+-3--7--
+8--3------2--3
-43--4---23----
9-53--6---833--
4--+----8-73--8
--26-6---7--553
-1---++-62-4---

*** Life<FredkinCell> 26x29 ***

Generation = 0, Population = 26.
-------------0---------------
-------------00----------0---
----------------------0------
------------0----------------
-----------------------------
--------------------0--------
-----------------------------
--------------------------0--
-----------------0-----------
---------------------------0-
---------0-------------------
-----------------------------
------------------0----------
-----------------------------
----------------------0------
-----------------------------
-----------------------------
--0---------0------0---------
--------------0-------------0
-----------------------------
---0-------------------------
--------0--------------------
-----------------------------
-----0-----------------------
--------------------0----0---
------0--------0---0---------

Generation = 20, Population = 251.
-4-3-30--2----5-----1-----2-2
------4--1--3--434-2-3415-344
-51-----------3-355-------2--
2----31---1-----2-------0----
-----2-2-----5------2-2------
-00-4-2-13-2-----04-2--4--846
-----11------31---4-33---5--1
-11------1----10---32-4------
-012-3---1------0---4-0--2---
--1-24-34-5--61-3-----2136-5-
-2----1--2---2---4--24-------
--2--4-----3---1---3---2--2--
01-0--3------2--4-2--1--5-4-3
-012--2---45113--3-430-5-4--2
0-0--0---30-3---27----4-54---
--0-1-3--------3-------------
--3----1-2-2-----0-07-0-01---
3----2-1324--2--2325343--511-
--3-3-2-2----2--3-1-4-2---4--
2-----5-21-----5-----1-4--1--
---30--0-3---0----2---52-----
--------4-4-110-1-2-2-0-20---
0-----------1-----0---4---1--
--65-2--7----0---3-2---3-0--0
0---11--32-5-21----5------6--
----4-25-1--5-----0701--3--3-

*** Life<FredkinCell> 27x29 ***

Generation = 0, Population = 42.
-----------------------------
--------------------------0--
---------0-------------------
-----0---------0------0------
---------------0-------------
--------0--------------------
-----------------------------
0--------------------------0-
---------0-------------------
--------------------------0--
-----------------------------
----0--0---------------------
--0---------0---------0------
--0--------------0-----------
--------00------------0------
-----------0-----------------
-----------0---------0-------
-----------------------------
----------------------0------
------------0--------0-------
------0------------0---------
-----0-----------0----------0
-------------------------0---
-00--------------------------
---0----------0--------------
--0-----------------0--0-----
--0--------------0-----------

Generation = 20, Population = 311.
--2-1-24-----5-4-100------11-
4-3--24---1-300-6---11--4-2-1
33----0--2-1----2-----7--1---
-2-3-2----1--8432------35----
--52-4--4736--34-----52--3-1-
-24-----510--2---1---4021-0--
------------54-5-3---1---5---
325----1-4-4------150-4------
-2-----5--2-3----3-134-----31
127-562-----3-2-6233---5-3-54
1--1-42--7-0-43----044--3----
50----3--5-2---4--5-----4-35-
--3--3--5-3-----------3---70-
+93---3---2---6-23-027-22-53-
-33----1--7----05354-5--4---2
274---4---1-2-------5------54
-4-2--650---5--6--4-34---3-73
-46-----4----43---2-1-326---4
---0-----1-4-33223--53-4-4---
-442--1-3---23--56-6----5----
2--632-14---5------2-36--7--4
-68--2-23-2--5--15-7-77--5--2
-13--2-3-4-----3-+57167------
----2--245--345-32---4-2---31
-3-2---24---3--4------9-41---
-5+44-5512-1-4-755-8--33-1--5
-7---34-13----7--650------1-1

*** Life<FredkinCell> 24x29 ***

Generation = 0, Population = 33.
-0----0----------------------
-------------0-------------0-
----------0------------------
-------00--------------------
-----------------------------
---0---------0---------------
----------------0----0-------
-0----------0----------------
-------0---------------------
-----------------------------
-----------------------0-----
----------------0----------0-
------------0-----------0----
---------------------0--0----
-----------------------------
------0----------0-----------
-----------------------0-----
-----------------------------
----------------------0-----0
------------------------0----
-----------------------------
-0-------------------0-------
------0----------------------
--0-0----------------------0-

Generation = 20, Population = 270.
---------1---3---322-6541--10
-----7-5---5-----3--1---42--0
-----6646----5--023-20-54-4--
-2532-----32-1---0-22--5---21
-------54----1--32-0-21----1-
-3031--4---6-5-1-5---4-204-4-
-4-1--54-4216----4-6----613--
-----43-43-1-7-5-3------3----
--22----0-028----3021--4-3-52
-----233-1-4-7---413---43----
2242-3-2--31---2-----732--1-6
-52204-04----1-5---1-------3-
55--4-2-----2---8--4-11-6-5--
-414--1-----4-0--7--6-75-6-57
-61--1-7----3-4---124---4----
4---32--6--52--3-----8--6----
-7-0-1--0--11--2--22---33--32
--42----253-----3-1--5-35--4-
-23-----------2-4-1--5-65---1
---0----2-2---10-12---------2
-0----421-------2--23--4----2
------60-2623--3--3--6-6-2---
----2-6-1-2-3-2-2120-418-342-
-5-1--4----5---4-242--4----2-

*** Life<FredkinCell> 28x29 ***

Generation = 0, Population = 33.
-----------------------------
----0---------0------0-------
0----------------------------
-----------------------------
-----------------------------
-------------------------0--0
----------0------0-----------
----------------0----0-------
-------------0-----0------0--
--------------------0-0--0---
-----------------------0-----
-----------------------------
-------0---------------------
-----------------0-----------
-----------------------------
------0----0---------0-------
-----------------------------
-----------------------------
---0-------------------------
--0--------------------------
----------------------------0
------------00---------------
-----------------------------
-----------------------0-----
----------------0-----0-----0
-----------------------------
----------------------0------
-------0---------------------

Generation = 20, Population = 288.
---2---4------3-1------3----5
803-414---5-----42----3---2-6
-0-49--2--1136----510----1---
-----22---------0------2--1--
-1-2-------------3-3--113-534
1---4-5---------32---66-555--
22-1-2--13----3022-2-364-----
-1--3--2-0--2------38-3----25
11---3-------4----32-5--5--38
410-20-0322--3--566-341------
-2-02------4-1-4--31--53-41--
3-------2--3----7----131--21-
-12-2------5----22-4---3---3-
12-1-04-3332--0---3-5-51----7
0------7---0------0---6---2--
-1--0----4--23---0-----2-213-
0------7------2---3-2--12---1
0---3--30-1---3--124-1---1-0-
--201--4--1------2----23-----
---1-2-643----4-41-1-------1-
0-----1-0-1-445---542-5-2-1-0
-6--541----4--4-----3512-1---
2------3---2-01----141-1-----
---3---4---354-2--3-4----0---
----1---42--9-41-01----40---0
-02-------1----12-3--2-23-1--
--01--5---------21-35--20--1-
---0--33-----3--1---211--1-0-

*** Life<FredkinCell> 17x29 ***

Generation = 0, Population = 40.
---------------0-------------
-------0----------------0----
----0------------------------
--00-----00--0--0------------
--------0-------------0------
-------------------0-------0-
-----------------------------
-0------0----0---------------
----0--0---0----0------------
-----------------------------
-----------------------------
-------------------------0---
--0---------0-------0------0-
----0---0--0-------0-----00--
--00---0-0----0--------------
------------0--------------0-
-------------------0---------

Generation = 20, Population = 211.
1----21--3-55210--082---2----
3-------------45--55-2-6---55
4--34---71-06--4---31------4-
5-6-2612-9----6--6----5-66-5-
--14-224-1-3-11-8-43---14-3-6
7-------+---5--7--4--35--43-0
--556-4-2-2----43--20-552----
2--2-5--0--677--31431------23
--4-1-1--6--4--01-035--4-----
---42-0302------66--1----525-
--33-3-8---6----2--5--56-0263
48-513224412--6258--33--12--3
----5-5-8-33--6-1-353-3-2-42-
--71-4----227--09---56-78----
-7+------3-94-67--8--4--5--5-
-40--55-4---6-4----73---5-6-5
--4--5-----4-------5---3-2-3-

*** Life<FredkinCell> 25x16 ***

Generation = 0, Population = 40.
----0-0---------
------00--------
0------0----0---
------0---------
----------------
----------0-0---
--------------0-
-----00----0----
----------------
----0-----------
--------------0-
--0-------------
-----------0----
----------------
--------0---0---
0-------00----0-
----------------
------------0---
----------------
--0-------------
-0---0--0-------
---0-------0----
--------------00
-------0---0----
-0---0---0---00-

Generation = 20, Population = 193.
-13-10-953-5----
--4--7-4-24--54-
5-32-2566-2+-6--
---07--675514-4-
-0--6-----2-424-
--2---37-3--5--3
-33--134--4---+-
--3325-71----3-2
34-4---41---35--
--4-2--2--------
-35-115---8--3--
7-3--3-2456----1
--24-4152-3---3-
---46-22--457--1
265---53----829-
32-5---+8---4---
--02-9238804-62-
--73-2-3---763--
4-4243--3-----2-
5-12-----346441-
45-34-7-1-4--534
-32-5--61---5-3-
5--14-24-77411--
-----6636-1-57-3
-3-30----54-4+-5

*** Life<FredkinCell> 23x28 ***

Generation = 0, Population = 42.
---------------0----0-------
0---------------------------
00--------------0------0----
----0-----------0-0---------
-----0------------------0---
--------------0-------------
-------0--------------------
----------------0-----------
------------------0---------
----------------------------
---0--------00---0----------
0-0----------------------0--
----------0--0----00--------
-00-------------------------
--------0-------------------
-------0--------------------
0----------0----------------
----0---------0-------------
--------------0----0---0----
----0---------------00------
------0---------------------
----------------------------
----------------------------

Generation = 20, Population = 265.
--10--3--54--4-3333----2---0
9-5-509-3---2---4---0-----2-
3-63--665---3-----514-14-3-5
------3-5-----4-907-61--2524
6----2---341----5----22-----
-1------------1-6-----2---4-
5-33-230--3---3-1-2---5-----
--1------32---41----1-5-31--
--313---04-6344--614--5----0
----6-----2-104--2--------1-
-52------337---5--46---271-2
9----4--1-83-1--3213---6-6--
---65-4---2-2-3-54---------4
53--8----2---2--227-244---0-
-635353------5-4-35934----33
2-2--1---23-1-332-3-73---1-1
4-1--4-51-74765--44-98-3-125
-2--14------715-342---4-2-1-
24-3-6---5--21----76-3-82757
752-7----5--3--4----283----6
-2-36-------3840-4---5----28
-14-----------6---2-2-----1-
-1-1-1-24-221-3-5-12-2-11-0-

*** Life<FredkinCell> 22x15 ***

Generation = 0, Population = 31.
------0--------
----0--------00
---0-----------
---------------
--0------------
-000----0------
0-0------------
---------------
---------------
------00----0--
---------------
-------00------
-------00--0---
----------00---
0--------------
--00-----------
---------------
----------0----
--------0------
---------------
0---------0----
-0-----0-------

Generation = 20, Population = 112.
6-1-4--4--51---
-7----45---54--
4--4---5---2---
-2-22--2---51--
9---7-1---6---2
---6-4----11--2
--6----43--6---
-4-6-4-36-23---
---4------3---2
3-35-4-9-----22
----3-------4--
-5----26--26--5
--7---4-3-31---
-4786-5-222-7-6
--952---9-3----
----------3-4-3
----4--4--531--
53-4-----416--3
4-----44-------
-4------------7
5-6----03--0---
84---3-44----42

*** Life<FredkinCell> 15x10 ***

Generation = 0, Population = 42.
------0-0-
-0-------0
0--00000-0
--0--000--
--0-0----0
----000--0
-----0-0--
----------
0-0--0--0-
-----0-0--
0-------0-
---00-----
-0--------
0-00----0-
----00---0

Generation = 20, Population = 67.
--1-7--87-
-3-----944
---93-3-73
64+34-68-4
-4--2--35-
----7---5-
-66--87-56
--5----6--
--5-6---5-
----87-4-8
13-6-1795-
-94-7--2--
8---92-356
44------3-
-3-+-7-4-3

*** Life<FredkinCell> 10x11 ***

Generation = 0, Population = 34.
--------0--
-0-0-----0-
------0-0-0
----00-00--
-00------00
---0---00-0
00-0----0--
-0----0---0
--00--0---0
---00--0-0-

Generation = 20, Population = 54.
59-5-051--5
-2----7-5-7
--12-4-3--6
5-9+--5-62-
6--47---6--
34262---5--
84-3-6+-6-2
8-----5---9
335-45---44
-4--6-1--74

*** Life<FredkinCell> 11x20 ***

Generation = 0, Population = 47.
0------------------0
0--0-000----0-0-----
-0---0-----0----0-0-
----0----0---0------
------0------0------
--0----0--0-----0---
0------00-----0-----
-----------00----000
--------0000-0----0-
0-----00-00---------
-------------0-0-0-0

Generation = 20, Population = 113.
54--3-3--+-44--32-+1
5-5--3-597---0651--8
--76---39-42167-52--
27---5--6-----76--5-
7-4-----5313-5----50
-4--881456--0--2--51
04-5084-68-878143-45
-1126--9-6----35--75
-4--6--9-4-----5-66-
--33-+89-3---4624---
----2552--8614-34---

*** Life<FredkinCell> 11x25 ***

Generation = 0, Population = 43.
-----0----0-------0---0--
--0---0--0-00------------
------0---0--------------
0---------------000------
0-0--0----0---0-0-------0
-0-0--0-------------0----
-------------------------
----0--0--0--00-------0--
---0-0-0-----------0--0-0
---------0-0-0-----0-----
------------------------0

Generation = 20, Population = 125.
35-5---3---4-1-2636--431-
649--475543-2-----9-5--21
-1--+52-4---6-2-7-4--0---
-----4----3--53---5-91702
7----4--1--5-3-392--2--26
-7046--58---2---4-16----4
---90--6---2---4----3-54-
--7-64--34----8----71-613
98-6----3----31-639-94+--
17-62------5-46-----567-6
23---38-3-423-25--0--3-32

*** Life<FredkinCell> 11x29 ***

Generation = 0, Population = 37.
-----0--0------------0----0--
----00--0-0---00--0----------
-----------0--------0--------
-----------------------------
--------0-----------0--------
-------0--------0-0----------
-------------------0----0----
-0--------------0-------0----
----00----0-----0--------0---
0------0-0---0--0------------
--------0-000----------------

Generation = 20, Population = 139.
2-35-+6---56-2-4-----7-34--4-
--3--26---7---54----45--327--
1--7-----21---126--7-5--0--3-
17------7----3--412-----5-3--
--7-52--81--5-3--41------3--1
5-2-2+1---43---3-1--33-2-2--6
6-3----2--8------4-3-32-4874-
-82--8---8---42--4---3-------
20-9--4-4358-4733----2-32-223
------3-44-321--9-7--15-35-14
5-56334---4-9--46035-15--654-

*** Life<FredkinCell> 19x24 ***

Generation = 0, Population = 25.
------------------------
----------0-------------
------------------------
------------00----------
---------------0--------
0--------------0--------
---------------------0--
-----------------0------
----------------0----0--
------------------------
------------------------
0---0-------------------
---------------------0--
---0-----0--------------
---------------0--------
-----0--------------0---
------------0-----------
------00-------0--------
----0----------0------0-

Generation = 20, Population = 178.
--------1--2----33-1-4--
0-1-63-3162--24-2423----
1----0--2------56121-423
--3-2-1-5-------31--5--3
-----3--2---44--7-27--0-
4-223-64----36----44140-
-1--3--223--7--472--2-63
-12--2---4021-3------2--
-00--2-4-5--5------24-21
--6-3-4---3--32323-----1
-----1------0------3---5
314--64---1---22-33--0--
203--2-5-3-4----5---3---
-9-3--8-2-2---4--1-2-20-
------2-----42---------4
----15----3-123--7--12-4
5----2-----4---24---+--6
6-73-57+6--22418-424----
----------34-3---3-739--

*** Life<FredkinCell> 26x20 ***

Generation = 0, Population = 24.
-------------0------
---0----------------
-----------0--------
--------------------
-----------0--------
--------------------
--------------------
----0------------000
--0-----------------
-----------------0--
--------------------
-----0--------------
--------0-----------
----0---------------
--------------0-----
--------------------
-0------------0-----
-------------0------
--------------------
------0---------0---
--------------------
--------------------
--------0-----------
-------0--------0---
--0-----------------
--0-----------------

Generation = 20, Population = 191.
-------14------3----
0---3--107-5-+---3-2
--6-0--421-41----5--
---2422--1--2---4504
--4----3-1-40----50-
-11-4--2---3--------
3--63-5-4--305------
------546-4-83-7686-
2-14----3--5-44---5-
35---565--36----54--
2-4----1--2--4-1----
5454+-----1--4-39-45
------73-------3-15-
--6---------3-2-5---
--3---2--3--3-2--2--
1-1------5---2----27
-2--2--------3--8--0
-334-8-3----5--40---
4-----203-1--4304---
3-6-2--331----3--6-2
432--3-07---3--0-0--
-1-3-23----03---422-
--2--------01-----1-
4-83-4-----3-363--2-
516-5-5----0----1---
71-----6-2---04-2---

*** Life<FredkinCell> 25x20 ***

Generation = 0, Population = 28.
----0---0-----------
--------------------
----------0------0--
--------------------
-------0--00---0---0
------------0-------
--------------------
-0------0-----------
--------------------
----------------0---
----0-----0---------
-------0------------
0-----0--0----------
--------------------
-0-00---------------
--------0-----------
--------------------
--------------------
--------------------
-----0-------0------
---------------0----
--------------------
--0-----------------
--------------------
-------------------0

Generation = 20, Population = 172.
--3-6--72---7513-0--
--1---------5---3---
5-6---4-4-32-5--3-4-
---6--2-3--3-2--2---
----87--------4-9053
------4---------2---
-1-------3-6---2----
-14-4----63--------3
--6----403---0-3046-
--------5-----------
2-314--5---4-6---56-
-5-6-4--1--5-5---5-3
66------6167-2-----0
3-------2---1-------
5-----3-674-57-4-2--
--5----632323------1
1103-1-1-3-30-4-0116
------------2-------
3---5---53411-12-20-
----123-4---3---46--
75---06---1--71--1-6
--------2-------2---
---1----5-5--51-412-
-1-221-2-4--1------1
---60---14123-01--01

*** Life<FredkinCell> 13x19 ***

Generation = 0, Population = 33.
----0--------------
0-----------0----0-
--00----------0--0-
-----00-0----------
-0------0--0-----0-
-----0--0------0---
--------0----------
------00--0-0------
-------------------
0------------------
---------000--0----
0----0----------0--
-----------0----0--

Generation = 20, Population = 131.
6--7-51--2----4--31
43--39512---5-7556-
-65--12----2--1-7+-
-8-63-5-73404-33-62
---13-55643-9-5-367
--24-2--432----9--3
-35381-24---5--24--
-3----414325----8-2
-487-32488-41-8--52
343--735--92-6475--
3+---7-5-----3--5--
22--89--4-7---45---
244-1435----7-77-28

*** Life<FredkinCell> 11x23 ***

Generation = 0, Population = 36.
-----0--0---0-0-0------
-------0------0---00---
-----------0----0------
----------0------------
---0-----0--00------0-0
---0-----------00------
------0---0------------
-0-----0--0-----0---0--
----------0-0----0-----
-0-0-0---------------0-
----------------0------

Generation = 20, Population = 115.
-05-3----4---6----5-53-
0--4252-42--+--18746-8-
--------+----7-8-67-825
-3----3-5----3---1----3
-56---5-----2--7----48-
26-436---2--37-54-75-43
02-4--8-2892647-0--2-43
-83--3---4--34---41--7-
22-4--7-6341+44-5--5-33
2--2------4-3--663824-2
-1--834--43----6--8----

*** Life<FredkinCell> 11x20 ***

Generation = 0, Population = 26.
--0--------------0--
----------0-----0---
--------00--0----0--
------0-0-----------
00----0-------------
-------0-----------0
---0----------00-0--
-------------------0
---0----------------
-----0-00----0------
----------------0---

Generation = 20, Population = 105.
1140---25+7----72-4-
-264-2--------345567
-5--6-4-3-513-364-3-
---3-5------5-3---54
-954-2-02336576-4-63
23---5-1--+5--------
---42264-4-4--67---8
-2-----4-4-----2271-
52--------19-16----5
--22---56639-9161--2
3-4----668----2479-2

*** Life<FredkinCell> 15x15 ***

Generation = 0, Population = 36.
-0--00-----0-0-
-----0-------0-
00--0----------
-------0--0----
--0--------0---
--------------0
---------0--0-0
-0------------0
------------0-0
---------------
---0-0-0-----00
---------------
---0-----------
0----0--0--0--0
--0--0--0------

Generation = 20, Population = 0.
---------------
---------------
---------------
---------------
---------------
---------------
---------------
---------------
---------------
---------------
---------------
---------------
---------------
---------------
---------------

*** Life<FredkinCell> 28x10 ***

Generation = 0, Population = 35.
-0-0------
-------0--
0---------
00--------
---0-0----
00---0-0--
----------
-------0--
----------
---0------
----------
-0--------
-----0-00-
-----0----
----------
------0---
-----0----
0--0------
-------0--
----0-----
-0--------
0----0----
-0------0-
-----0--0-
----------
0---------
----------
0--------0

Generation = 20, Population = 135.
---+344-0-
--0--18--2
2357++-25-
--41---722
-6-4-6-2-6
-5-49--62-
-6-9-54---
----419-7-
470---31-0
---21-5--5
-2-3---512
---4-7---5
2---3-69--
-414--7-62
74-1----4-
5--468-443
171--52--7
++716235-5
-4-4--3-61
3--46+423-
-2-------4
-7--423-38
--1---4-5-
---------4
-----4-4-1
---373--12
--32--2---
-4--522-42

*** Life<FredkinCell> 26x26 ***

Generation = 0, Population = 48.
----0-00--------------0---
--------------------------
-0----0------0-----00-----
-------------------0------
--------------------------
--------------------------
------0-----0-------------
------------------0------0
--0--0--0------------0----
--------------------------
-------------------0----0-
--------------0-0--------0
--------------------0----0
--------------------------
--------------0-----------
------------000---------0-
--------------------------
--0-----0-----------------
------------------0-------
-------0-----------0------
------0-------------0-----
-----------------0--0-----
-----------0------00----0-
-------0------0----0------
--------------------------
--------------------00----

Generation = 20, Population = 305.
-24-----3-44235-------73--
0-0-3-3-1---1----3--1-----
15--5-3--724--6-66----7-32
--22-----41-3264--755----4
--6--13131------6-1--14-2-
--4-----2----1--3---3---3-
----5--4-1--072-2---2-----
2----33--34--47-416---3--2
----76--------4-60-64-4--0
-------1------5-3--51---30
3----35-2---25--2-----4-4-
12---2--25-5364---355-7-6-
524-31--3-1-14-5414--5+3--
---1--13--500--1---542-31-
524-0-25--47716--1-7--666-
31-4-337-4-451---6488-13-5
25-2--2--3---0--1-425-3-2-
-3235--45-322313----7-32--
-2--22910042--511--8---1-5
303-2-3-4--3-4-2--3434-25-
2-8--1-2----------5-611--3
40--5-75-33---3-52-2---4-3
31--3-------3-3---536-35--
-----3--2--5-4-3-33---5---
305--23--1--2----1--7-513-
---56--78312564-55---34-64

*** Life<FredkinCell> 19x29 ***

Generation = 0, Population = 38.
-----------------------------
0-----------------0----0-----
-------------------0---0-----
----------0-------0------0---
-----------------------------
------0---0--------0---------
-----------------------------
------------0----------------
--------0----------------0---
--------00-----------------0-
---------------------0-------
------0---0-0----0----0------
0--0----------------------0--
-----------------------------
--------------------0----0---
---0----0-----------------0--
--0--------0----------0------
--------------------------0--
------------0--00------------

Generation = 20, Population = 229.
------1--------31-02---44----
3-4-0-32-1430-334-42----1-62-
--120-------7--75-----34---21
---2-1--1-2-432-3-3-4-4-----1
--5---1-60--5---5--53-3-24---
4-3-----6-96-2213-42---4-1---
6--3401---------1-14---3--4--
33--4--1-54-3---832-6-----1--
--6--2-----24-33----5--46---3
24-23-5502-3--1---322743----0
-2-----0---4----------5--2--3
-47232--9-82417-6--1-3--2----
---2--72-24-5-06---2----1----
0-6---6---4441321-37--4-70---
5-463---4---3-----66-3-3--432
-3--6-64--6---2-123-2--0--2--
4------32--1-------4-3335-2-4
----3-9-536-4-413---4-34-----
5-25----41--2--3-3766---54232
